\select@language {brazil}
\beamer@sectionintoc {1}{Overview}{3}{0}{1}
\beamer@sectionintoc {2}{Interface Gr\IeC {\'a}fica}{11}{0}{2}
\beamer@sectionintoc {3}{Terminal -- B\IeC {\'a}sico}{26}{0}{3}
\beamer@sectionintoc {4}{Terminal -- Novos Programas}{39}{0}{4}
\beamer@sectionintoc {5}{Terminal -- Informa\IeC {\c c}\IeC {\~o}es Sobre o Sistema}{43}{0}{5}
